%YAML 1.1
%TAG !u! tag:unity3d.com,2011:
--- !u!21 &2100000
Material:
  serializedVersion: 6
  m_ObjectHideFlags: 0
  m_PrefabParentObject: {fileID: 0}
  m_PrefabInternal: {fileID: 0}
  m_Name: Ball_20
  m_Shader: {fileID: 22, guid: 0000000000000000f000000000000000, type: 0}
  m_ShaderKeywords: 
  m_LightmapFlags: 5
  m_CustomRenderQueue: -1
  stringTagMap: {}
  m_SavedProperties:
    serializedVersion: 2
    m_TexEnvs:
      data:
        first:
          name: _MainTex
        second:
          m_Texture: {fileID: 2800000, guid: 2728ef6d26e9d4c719aac43ef80c66a9, type: 3}
          m_Scale: {x: 1, y: 1}
          m_Offset: {x: 0, y: 0}
      data:
        first:
          name: _BumpMap
        second:
          m_Texture: {fileID: 2800000, guid: 21948b27ecf0a469bb5cbdfcb3acd6f6, type: 3}
          m_Scale: {x: 1, y: 1}
          m_Offset: {x: 0, y: 0}
      data:
        first:
          name: _Cube
        second:
          m_Texture: {fileID: 8900000, guid: 0a5cc69073d874cf9aba73c848f0407c, type: 2}
          m_Scale: {x: 1, y: 1}
          m_Offset: {x: 0, y: 0}
    m_Floats:
      data:
        first:
          name: _Shininess
        second: 1
    m_Colors:
      data:
        first:
          name: _Color
        second: {r: 0.8273601, g: 0.7910839, b: 0.616227, a: 1}
      data:
        first:
          name: _SpecColor
        second: {r: 0.8557894, g: 0.808701, b: 0.6897407, a: 1}
      data:
        first:
          name: _ReflectColor
        second: {r: 0.9075339, g: 0.8437632, b: 0.72581017, a: 0.5019608}
--- !u!1002 &2100001
EditorExtensionImpl:
  serializedVersion: 6
